[
   {
      "codename":"stench",
      "cs":"Má šanci nepřítele [zastrašit]{mechanic:flinch} během útočení."
   },
   {
      "codename":"drizzle",
      "cs":"Přivolá [déšť]{mechanic:rain}, který trvá až po ukončení zápasu."
   },
   {
      "codename":"speedboost",
      "cs":"Zvýší [Rychlost]{mechanic:speed} o jeden [stupeň]{mechanic:stat-modifier} po každém kole."
   },
   {
      "codename":"swiftswim",
      "cs":"Během [deště]{mechanic:rain} zdvojnásobuje [Rychlost]{mechanic:speed}."
   },
   {
      "codename":"chlorophyll",
      "cs":"Během [slunečného počasí]{mechanic:strong-sunlight} zdvojnásobuje [Rychlost]{mechanic:speed}."
   }
]
