[
   {
      "codename":"monster",
      "cs":"Pozemní"
   },
   {
      "codename":"humanshape",
      "cs":"Antropoidní"
   },
   {
      "codename":"mineral",
      "cs":"Minerály"
   },
   {
      "codename":"indeterminate",
      "cs":"Beztvární"
   },
   {
      "codename":"ditto",
      "cs":"Ditto"
   },
   {
      "codename":"noeggs",
      "cs":"Nekřižitelní"
   },
]
