[
   {
      "codename":"pound",
      "cs":"Facka"
   },
   {
      "codename":"karatechop",
      "cs":"Karatistický úder"
   },
   {
      "codename":"doubleslap",
      "cs":"Dvojitá facka"
   },
   {
      "codename":"cometpunch",
      "cs":"Opakovaný úder"
   },
   {
      "codename":"megapunch",
      "cs":"Megarána"
   },
   {
      "codename":"payday",
      "cs":"Výplata"
   },
   {
      "codename":"firepunch",
      "cs":"Ohnivý úder"
   },
   {
      "codename":"icepunch",
      "cs":"Ledový úder"
   },
   {
      "codename":"thunderpunch",
      "cs":"Blesková rána"
   },
   {
      "codename":"scratch",
      "cs":"Škrábnutí"
   },
   {
      "codename":"vicegrip",
      "cs":"Svěrák"
   },
   {
      "codename":"guillotine",
      "cs":"Klepetí gilotina"
   },
   {
      "codename":"razorwind",
      "cs":"Ostrý vítr"
   },
   {
      "codename":"swordsdance",
      "cs":"Tanec mečů"
   },
   {
      "codename":"cut",
      "cs":"Sek"
   },
   {
      "codename":"gust",
      "cs":"Vzdušný vír"
   },
   {
      "codename":"wingattack",
      "cs":"Křídlový útok"
   },
   {
      "codename":"whirlwind",
      "cs":"Odfouknutí"
   },
   {
      "codename":"fly",
      "cs":"Let"
   },
   {
      "codename":"bind",
      "cs":"Omotání"
   },
   {
      "codename":"slam",
      "cs":"Náraz"
   },
   {
      "codename":"vinewhip",
      "cs":"Úponkový bič"
   },
   {
      "codename":"stomp",
      "cs":"Dupnutí"
   },
   {
      "codename":"doublekick",
      "cs":"Dvojitý kop"
   },
   {
      "codename":"megakick",
      "cs":"Megakop"
   },
   {
      "codename":"jumpkick",
      "cs":"Kop z výskoku"
   },
   {
      "codename":"rollingkick",
      "cs":"Kop s otočkou"
   },
   {
      "codename":"sandattack",
      "cs":"Písečný útok"
   },
   {
      "codename":"headbutt",
      "cs":"Náraz hlavou"
   },
   {
      "codename":"hornattack",
      "cs":"Rohový útok"
   },
   {
      "codename":"furyattack",
      "cs":"Zuřivý útok"
   },
   {
      "codename":"horndrill",
      "cs":"Vrtání rohem"
   },
   {
      "codename":"tackle",
      "cs":"Nárazový útok"
   },
   {
      "codename":"bodyslam",
      "cs":"Zavalení"
   },
   {
      "codename":"wrap",
      "cs":"Ovinutí"
   },
   {
      "codename":"takedown",
      "cs":"Sejmutí"
   },
   {
      "codename":"thrash",
      "cs":"Zuřivost"
   },
   {
      "codename":"doubleedge",
      "cs":"Dvojí ostří"
   },
   {
      "codename":"tailwhip",
      "cs":"Vrtění ocasem"
   },
   {
      "codename":"poisonsting",
      "cs":"Jedovaté žihadlo"
   },
   {
      "codename":"twineedle",
      "cs":"Dvojehla"
   },
   {
      "codename":"pinmissile",
      "cs":"Jehlostřela"
   },
   {
      "codename":"leer",
      "cs":"Lstivý pohled"
   },
   {
      "codename":"bite",
      "cs":"Kousnutí"
   },
   {
      "codename":"growl",
      "cs":"Zavrčení"
   },
   {
      "codename":"roar",
      "cs":"Řev"
   },
   {
      "codename":"sing",
      "cs":"Zpěv"
   },
   {
      "codename":"supersonic",
      "cs":"Ultrazvuk"
   },
   {
      "codename":"sonicboom",
      "cs":"Zvuková vlna"
   },
   {
      "codename":"disable",
      "cs":"Zákaz"
   },
   {
      "codename":"acid",
      "cs":"Kyselina"
   },
   {
      "codename":"ember",
      "cs":"Popálení"
   },
   {
      "codename":"flamethrower",
      "cs":"Plamenomet"
   },
   {
      "codename":"mist",
      "cs":"Mlha"
   },
   {
      "codename":"watergun",
      "cs":"Vodní dělo"
   },
   {
      "codename":"hydropump",
      "cs":"Vodní pumpa"
   },
   {
      "codename":"surf",
      "cs":"Vodní pumpa"
   },
   {
      "codename":"surf",
      "cs":"Surfování"
   },
   {
      "codename":"icebeam",
      "cs":"Ledový paprsek"
   },
   {
      "codename":"blizzard",
      "cs":"Vánice"
   },
   {
      "codename":"psybeam",
      "cs":"Psychický paprsek"
   },
   {
      "codename":"bubblebeam",
      "cs":"Bublinomet"
   },
   {
      "codename":"aurorabeam",
      "cs":"Polární záře"
   },
   {
      "codename":"hyperbeam",
      "cs":"Hyperpaprsek"
   },
   {
      "codename":"peck",
      "cs":"Klovnutí"
   },
   {
      "codename":"drillpeck",
      "cs":"Nebozezobák"
   },
   {
      "codename":"submission",
      "cs":"Znehybnění"
   },
   {
      "codename":"lowkick",
      "cs":"Nízký kop"
   },
   {
      "codename":"counter",
      "cs":"Odvetný úder"
   },
   {
      "codename":"seismictoss",
      "cs":"Seismický vrh"
   },
   {
      "codename":"strength",
      "cs":"Síla"
   },
   {
      "codename":"absorb",
      "cs":"Vstřebání"
   },
   {
      "codename":"megadrain",
      "cs":"Megavysátí"
   },
   {
      "codename":"leechseed",
      "cs":"Pijavičné semínko"
   },
   {
      "codename":"growth",
      "cs":"Růst"
   },
   {
      "codename":"razorleaf",
      "cs":"Listová břitva"
   },
   {
      "codename":"solarbeam",
      "cs":"Sluneční paprsek"
   },
   {
      "codename":"poisonpowder",
      "cs":"Jedovatý pyl"
   },
   {
      "codename":"stunspore",
      "cs":"Omračující pyl"
   },
   {
      "codename":"sleeppowder",
      "cs":"Uspávací pyl"
   },
   {
      "codename":"petaldance",
      "cs":"Tanec listů"
   },
   {
      "codename":"stringshot",
      "cs":"Lepivé vlákno"
   },
   {
      "codename":"dragonrage",
      "cs":"Dračí hněv"
   },
   {
      "codename":"firespin",
      "cs":"Ohnivý vír"
   },
   {
      "codename":"thundershock",
      "cs":"Bleskový šok"
   },
   {
      "codename":"thunderbolt",
      "cs":"Bleskový útok"
   },
   {
      "codename":"thunderwave",
      "cs":"Blesková vlna"
   },
   {
      "codename":"thunder",
      "cs":"Blesk"
   },
   {
      "codename":"rockthrow",
      "cs":"Hod kamenem"
   },
   {
      "codename":"earthquake",
      "cs":"Zemětřesení"
   },
   {
      "codename":"fissure",
      "cs":"Puklina v zemi"
   },
   {
      "codename":"dig",
      "cs":"Hrabavý útok"
   },
   {
      "codename":"toxic",
      "cs":"Toxický útok"
   },
   {
      "codename":"confusion",
      "cs":"Zmatení"
   },
   {
      "codename":"psychic",
      "cs":"Psychika"
   },
   {
      "codename":"hypnosis",
      "cs":"Hypnóza"
   },
   {
      "codename":"meditate",
      "cs":"Meditace"
   },
   {
      "codename":"agility",
      "cs":"Hbitost"
   },
   {
      "codename":"quickattack",
      "cs":"Hbitý útok"
   },
   {
      "codename":"rage",
      "cs":"Hněv"
   },
   {
      "codename":"teleport",
      "cs":"Teleportace"
   },
   {
      "codename":"nightshade",
      "cs":"Noční stín"
   },
   {
      "codename":"mimic",
      "cs":"Napodobení"
   },
   {
      "codename":"screech",
      "cs":"Zaskřípání"
   },
   {
      "codename":"doubleteam",
      "cs":"Zdvojení"
   },
   {
      "codename":"recover",
      "cs":"Obnovení"
   },
   {
      "codename":"harden",
      "cs":"Zatvrzení"
   },
   {
      "codename":"minimize",
      "cs":"Zmenšení"
   },
   {
      "codename":"smokescreen",
      "cs":"Kouřová clona"
   },
   {
      "codename":"confuseray",
      "cs":"Matoucí paprsek"
   },
   {
      "codename":"withdraw",
      "cs":"Schování"
   },
   {
      "codename":"defensecurl",
      "cs":"Schoulení"
   },
   {
      "codename":"barrier",
      "cs":"Bariéra"
   },
   {
      "codename":"lightscreen",
      "cs":"Světelná zeď"
   },
   {
      "codename":"haze",
      "cs":"Opar"
   },
   {
      "codename":"reflect",
      "cs":"Zrcadlová zeď"
   },
   {
      "codename":"focusenergy",
      "cs":"Soustředění"
   },
   {
      "codename":"bide",
      "cs":"Výzva"
   },
   {
      "codename":"metronome",
      "cs":""
   },
   {
      "codename":"mirrormove",
      "cs":"Zrcadlový útok"
   },
   {
      "codename":"selfdestruct",
      "cs":"Sebezničení"
   },
   {
      "codename":"eggbomb",
      "cs":"Vaječná puma"
   },
   {
      "codename":"lick",
      "cs":"Oblíznutí"
   },
   {
      "codename":"smog",
      "cs":"Smog"
   },
   {
      "codename":"sludge",
      "cs":"Bahno"
   },
   {
      "codename":"boneclub",
      "cs":"Kostěný kyj"
   },
   {
      "codename":"fireblast",
      "cs":"Kostěný kyj"
   },
   {
      "codename":"waterfall",
      "cs":"Vodopád"
   },
   {
      "codename":"clamp",
      "cs":"Sevření"
   },
   {
      "codename":"swift",
      "cs":"Hvězdičky"
   },
   {
      "codename":"skullbash",
      "cs":"Úder lebkou"
   },
   {
      "codename":"spikecannon",
      "cs":"Ostnové dělo"
   },
   {
      "codename":"constrict",
      "cs":"Škrcení"
   },
   {
      "codename":"amnesia",
      "cs":"Amnézie"
   },
   {
      "codename":"kinesis",
      "cs":"Kineze"
   },
   {
      "codename":"softboiled",
      "cs":"Na měkko"
   },
   {
      "codename":"highjumpkick",
      "cs":"Vysoký kop"
   },
   {
      "codename":"glare",
      "cs":"Hadí pohled"
   },
   {
      "codename":"dreameater",
      "cs":"Požírač snů"
   },
   {
      "codename":"poisongas",
      "cs":"Jedovatý plyn"
   },
   {
      "codename":"barrage",
      "cs":"Bombardování"
   },
   {
      "codename":"leechlife",
      "cs":"Vysátí"
   },
   {
      "codename":"lovelykiss",
      "cs":"Polibek"
   },
   {
      "codename":"skyattack",
      "cs":"Nebeský útok"
   },
   {
      "codename":"transform",
      "cs":"Transformace"
   },
   {
      "codename":"bubble",
      "cs":"Bublinky"
   },
   {
      "codename":"dizzypunch",
      "cs":"Zmatený úder"
   },
   {
      "codename":"spore",
      "cs":"Výtrus"
   },
   {
      "codename":"flash",
      "cs":"Záblesk"
   },
   {
      "codename":"psywave",
      "cs":"Psyvlna"
   },
   {
      "codename":"splash",
      "cs":"Šplouchnutí"
   },
   {
      "codename":"acidarmor",
      "cs":"Rozpuštění"
   },
   {
      "codename":"crabhammer",
      "cs":"Krabí kladivo"
   },
   {
      "codename":"explosion",
      "cs":"Exploze"
   },
   {
      "codename":"furyswipes",
      "cs":"Zuřivé řezání"
   },
   {
      "codename":"bonemerang",
      "cs":"Kostmerang"
   },
   {
      "codename":"rest",
      "cs":"Odpočinek"
   },
   {
      "codename":"rockslide",
      "cs":"Pád skály"
   },
   {
      "codename":"hyperfang",
      "cs":"Hypertesák"
   },
   {
      "codename":"sharpen",
      "cs":"Nabroušení"
   },
   {
      "codename":"conversion",
      "cs":"Konverze"
   },
   {
      "codename":"triattack",
      "cs":"Trojitý útok"
   },
   {
      "codename":"superfang",
      "cs":"Supertesák"
   },
   {
      "codename":"slash",
      "cs":"Šmik"
   },
   {
      "codename":"substitute",
      "cs":"Zástupce"
   },
   {
      "codename":"struggle",
      "cs":"Zoufalý útok"
   },
   {
      "codename":"sketch",
      "cs":"Náčrt"
   },
   {
      "codename":"triplekick",
      "cs":"Trojitý kop"
   },
   {
      "codename":"thief",
      "cs":"Zloděj"
   },
   {
      "codename":"spiderweb",
      "cs":"Pavučina"
   },
   {
      "codename":"mindreader",
      "cs":"Čtení mysli"
   },
   {
      "codename":"nightmare",
      "cs":"Noční můra"
   },
   {
      "codename":"flamewheel",
      "cs":"Ohnivý kruh"
   },
   {
      "codename":"snore",
      "cs":"Chrápání"
   },
   {
      "codename":"curse",
      "cs":"Prokletí"
   },
   {
      "codename":"flail",
      "cs":"Škubání"
   },
   {
      "codename":"conversion2",
      "cs":""
   },
   {
      "codename":"aeroblast",
      "cs":"Vzdušný výbuch"
   },
   {
      "codename":"cottonspore",
      "cs":"Chmýří"
   },
   {
      "codename":"reversal",
      "cs":"Zvrat"
   },
   {
      "codename":"spite",
      "cs":"Zlá vůle"
   },
   {
      "codename":"powdersnow",
      "cs":"Prašan"
   },
   {
      "codename":"protect",
      "cs":"Protekce"
   },
   {
      "codename":"machpunch",
      "cs":"Hbitá pěst"
   },
   {
      "codename":"scaryface",
      "cs":"Děsivý škleb"
   },
   {
      "codename":"feintattack",
      "cs":"Matný útok"
   },
   {
      "codename":"sweetkiss",
      "cs":"Sladký polibek"
   },
   {
      "codename":"bellydrum",
      "cs":"Břišní buben"
   },
   {
      "codename":"sludgebomb",
      "cs":"Bahenní puma"
   },
   {
      "codename":"mudslap",
      "cs":"Plesknutí blátem"
   },
   {
      "codename":"octazooka",
      "cs":"Chobozuka"
   },
   {
      "codename":"spikes",
      "cs":"Střepiny"
   },
   {
      "codename":"zapcannon",
      "cs":"Výbojové dělo"
   },
   {
      "codename":"foresight",
      "cs":"Vidění"
   },
   {
      "codename":"destinybond",
      "cs":"Pouto osudu"
   },
   {
      "codename":"perishsong",
      "cs":"Píseň zániku"
   },
   {
      "codename":"icywind",
      "cs":"Severák"
   },
   {
      "codename":"detect",
      "cs":"Detekce"
   },
   {
      "codename":"bonerush",
      "cs":"Příval kostí"
   },
   {
      "codename":"lockon",
      "cs":"Zaměření"
   },
   {
      "codename":"outrage",
      "cs":"Rozzuření"
   },
   {
      "codename":"sandstorm",
      "cs":"Písečná bouře"
   },
   {
      "codename":"gigadrain",
      "cs":"Gigavysátí"
   },
   {
      "codename":"endure",
      "cs":"Výdrž"
   },
   {
      "codename":"charm",
      "cs":"Šarm"
   },
   {
      "codename":"rollout",
      "cs":"Valivý útok"
   },
   {
      "codename":"falseswipe",
      "cs":"Falešný sek"
   },
   {
      "codename":"swagger",
      "cs":"Naparování"
   },
   {
      "codename":"milkdrink",
      "cs":"Doušek mléka"
   },
   {
      "codename":"spark",
      "cs":"Jiskra"
   },
   {
      "codename":"furycutter",
      "cs":"Zuřivé nože"
   },
   {
      "codename":"steelwing",
      "cs":"Ocelové křídlo"
   },
   {
      "codename":"meanlook",
      "cs":"Zlý pohled"
   },
   {
      "codename":"attract",
      "cs":"Zalíbení"
   },
   {
      "codename":"sleeptalk",
      "cs":"Řeč ze sna"
   },
   {
      "codename":"healbell",
      "cs":"Léčivý zvonek"
   },
   {
      "codename":"return",
      "cs":"Opětování"
   },
   {
      "codename":"present",
      "cs":"Dárek"
   },
   {
      "codename":"frustration",
      "cs":"Frustrace"
   },
   {
      "codename":"safeguard",
      "cs":"Ochrana"
   },
   {
      "codename":"painsplit",
      "cs":"Půlená bolest"
   },
   {
      "codename":"sacredfire",
      "cs":"Posvátný oheň"
   },
   {
      "codename":"magnitude",
      "cs":"Magnituda"
   },
   {
      "codename":"dynamicpunch",
      "cs":"Výbušný úder"
   },
   {
      "codename":"megahorn",
      "cs":"Megaroh"
   },
   {
      "codename":"dragonbreath",
      "cs":"Dračí dech"
   },
   {
      "codename":"batonpass",
      "cs":"Štafeta"
   },
   {
      "codename":"encore",
      "cs":"Přídavek"
   },
   {
      "codename":"pursuit",
      "cs":"Pronásledování"
   },
   {
      "codename":"rapidspin",
      "cs":"Kolotoč"
   },
   {
      "codename":"sweetscent",
      "cs":"Sladká vůně"
   },
   {
      "codename":"irontail",
      "cs":"Železný ocas"
   },
   {
      "codename":"metalclaw",
      "cs":"Kovový dráp"
   },
   {
      "codename":"vitalthrow",
      "cs":"Osudný vrh"
   },
   {
      "codename":"morningsun",
      "cs":"Ranní slunce"
   },
   {
      "codename":"synthesis",
      "cs":"Syntéza"
   },
   {
      "codename":"moonlight",
      "cs":"Měsíční svit"
   },
   {
      "codename":"hiddenpower",
      "cs":"Skrytá síla"
   },
   {
      "codename":"crosschop",
      "cs":"Křížový úder"
   },
   {
      "codename":"twister",
      "cs":"Tornádo"
   },
   {
      "codename":"raindance",
      "cs":"Tanec v dešti"
   },
   {
      "codename":"sunnyday",
      "cs":"Slunečný den"
   },
   {
      "codename":"crunch",
      "cs":"Křupnutí"
   },
   {
      "codename":"mirrorcoat",
      "cs":"Zrcadlo"
   },
   {
      "codename":"psychup",
      "cs":"Nápsych"
   },
   {
      "codename":"extremespeed",
      "cs":"Extrémní rychlost"
   },
   {
      "codename":"ancientpower",
      "cs":"Prastará síla"
   },
   {
      "codename":"shadowball",
      "cs":"Koule stínů"
   },
   {
      "codename":"futuresight",
      "cs":"Budoucnost"
   },
   {
      "codename":"rocksmash",
      "cs":"Drcení kamenů"
   },
   {
      "codename":"whirlpool",
      "cs":"Vodní vír"
   },
   {
      "codename":"beatup",
      "cs":"Zbití"
   },
   {
      "codename":"fakeout",
      "cs":"Předstírání"
   },
   {
      "codename":"uproar",
      "cs":"Hluk"
   },
   {
      "codename":"stockpile",
      "cs":"Zásobení"
   },
   {
      "codename":"spitup",
      "cs":"Vyplivnutí"
   },
   {
      "codename":"swallow",
      "cs":"Spolknutí"
   },
   {
      "codename":"heatwave",
      "cs":"Tepelná vlna"
   },
   {
      "codename":"hail",
      "cs":"Kroupy"
   },
   {
      "codename":"torment",
      "cs":"Trápení"
   },
   {
      "codename":"flatter",
      "cs":"Lichotka"
   },
   {
      "codename":"willowisp",
      "cs":"Bludička"
   },
   {
      "codename":"memento",
      "cs":"Odkaz"
   },
   {
      "codename":"facade",
      "cs":"Vzteklý útok"
   },
   {
      "codename":"focuspunch",
      "cs":"Mířená rána"
   },
   {
      "codename":"smellingsalts",
      "cs":"Smradlavá sůl"
   },
   {
      "codename":"followme",
      "cs":"Za mnou"
   },
   {
      "codename":"naturepower",
      "cs":"Přírodní síla"
   },
   {
      "codename":"charge",
      "cs":"Nabití"
   },
   {
      "codename":"taunt",
      "cs":"Navádění"
   },
   {
      "codename":"helpinghand",
      "cs":"Pomocná ruka"
   },
   {
      "codename":"trick",
      "cs":"Trik"
   },
   {
      "codename":"roleplay",
      "cs":"Vžití do role"
   },
   {
      "codename":"wish",
      "cs":"Přání"
   },
   {
      "codename":"assist",
      "cs":"Asistence"
   },
   {
      "codename":"ingrain",
      "cs":"Zakořenění"
   },
   {
      "codename":"superpower",
      "cs":"Supersíla"
   },
   {
      "codename":"magiccoat",
      "cs":"Magický plášť"
   },
   {
      "codename":"recycle",
      "cs":"Recyklace"
   },
   {
      "codename":"revenge",
      "cs":"Odplata"
   },
   {
      "codename":"brickbreak",
      "cs":"Rozbití cihly"
   },
   {
      "codename":"yawn",
      "cs":"Zívnutí"
   },
   {
      "codename":"knockoff",
      "cs":"Vyražení"
   },
   {
      "codename":"endeavor",
      "cs":"Úsilí"
   },
   {
      "codename":"eruption",
      "cs":"Erupce"
   },
   {
      "codename":"skillswap",
      "cs":"Výměna"
   },
   {
      "codename":"imprison",
      "cs":"Uvěznění"
   },
   {
      "codename":"refresh",
      "cs":"Osvěžení"
   },
   {
      "codename":"grudge",
      "cs":"Zášť"
   },
   {
      "codename":"snatch",
      "cs":"Šlohnutí"
   },
   {
      "codename":"secretpower",
      "cs":"Tajemná síla"
   },
   {
      "codename":"dive",
      "cs":"Potopení"
   },
   {
      "codename":"armthrust",
      "cs":"Úder paží"
   },
   {
      "codename":"camouflage",
      "cs":"Kamufláž"
   },
   {
      "codename":"tailglow",
      "cs":"Ocasní světélko"
   },
   {
      "codename":"lusterpurge",
      "cs":"Očistná záře"
   },
   {
      "codename":"mistball",
      "cs":"Mlhová koule"
   },
   {
      "codename":"featherdance",
      "cs":"Tanec peří"
   },
   {
      "codename":"teeterdance",
      "cs":"Bláznivé tóny"
   },
   {
      "codename":"blazekick",
      "cs":"Žárový kop"
   },
   {
      "codename":"mudsport",
      "cs":"Blátivá hra"
   },
   {
      "codename":"iceball",
      "cs":"Ledová koule"
   },
   {
      "codename":"needlearm",
      "cs":"Trnitá ruka"
   },
   {
      "codename":"slackoff",
      "cs":"Zalenošení"
   },
   {
      "codename":"hypervoice",
      "cs":"Hlaszvuk"
   },
   {
      "codename":"poisonfang",
      "cs":"Jedovatý tesák"
   },
   {
      "codename":"crushclaw",
      "cs":"Drtivá tlapa"
   },
   {
      "codename":"blastburn",
      "cs":"Ohnivý výšleh"
   },
   {
      "codename":"hydrocannon",
      "cs":"Hydrodělo"
   },
   {
      "codename":"meteormash",
      "cs":"Meteorána"
   },
   {
      "codename":"astonish",
      "cs":"Vyděšení"
   },
   {
      "codename":"weatherball",
      "cs":"Koule počasí"
   },
   {
      "codename":"aromatherapy",
      "cs":"Aromaterapie"
   },
   {
      "codename":"faketears",
      "cs":"Falešné slzy"
   },
   {
      "codename":"aircutter",
      "cs":"Sek vzduchem"
   },
   {
      "codename":"overheat",
      "cs":"Přehřátí"
   },
   {
      "codename":"odorsleuth",
      "cs":"Pachová stopa"
   },
   {
      "codename":"rocktomb",
      "cs":"Kamenná past"
   },
   {
      "codename":"silverwind",
      "cs":"Stříbrný vítr"
   },
   {
      "codename":"metalsound",
      "cs":"Kovový zvuk"
   },
   {
      "codename":"grasswhistle",
      "cs":"Travní hvizd"
   },
   {
      "codename":"tickle",
      "cs":"Polechtání"
   },
   {
      "codename":"cosmicpower",
      "cs":"Kosmická síla"
   },
   {
      "codename":"waterspout",
      "cs":"Vodotrysk"
   },
   {
      "codename":"signalbeam",
      "cs":"Signální záře"
   },
   {
      "codename":"shadowpunch",
      "cs":"Temná pěst"
   },
   {
      "codename":"extrasensory",
      "cs":"Mimosmyslové vnímání"
   },
   {
      "codename":"skyuppercut",
      "cs":"Nebeský úder"
   },
   {
      "codename":"sandtomb",
      "cs":"Písečné peklo"
   },
   {
      "codename":"sheercold",
      "cs":"Totální mráz"
   },
   {
      "codename":"muddywater",
      "cs":"Kalná voda"
   },
   {
      "codename":"bulletseed",
      "cs":"Semenomet"
   },
   {
      "codename":"aerialace",
      "cs":"Vzdušné eso"
   },
   {
      "codename":"iciclespear",
      "cs":"Rampouchové kopí"
   },
   {
      "codename":"irondefense",
      "cs":"Zaželezení"
   },
   {
      "codename":"block",
      "cs":"Zablokování"
   },
   {
      "codename":"howl",
      "cs":"Zavytí"
   },
   {
      "codename":"dragonclaw",
      "cs":"Dračí Spár"
   },
   {
      "codename":"frenzyplant",
      "cs":"Šílená kytka"
   },
   {
      "codename":"bulkup",
      "cs":"Nadmutí"
   },
   {
      "codename":"bounce",
      "cs":"Odražení"
   },
   {
      "codename":"mudshot",
      "cs":"Bahnomet"
   },
   {
      "codename":"poisontail",
      "cs":"Jedovatý ocas"
   },
   {
      "codename":"covet",
      "cs":"Chamtivost"
   },
   {
      "codename":"volttackle",
      "cs":"Voltonáraz"
   },
   {
      "codename":"magicalleaf",
      "cs":"Magický list"
   },
   {
      "codename":"watersport",
      "cs":"Vodní hra"
   },
   {
      "codename":"calmmind",
      "cs":"Klidná mysl"
   },
   {
      "codename":"leafblade",
      "cs":"Ostrý list"
   },
   {
      "codename":"dragondance",
      "cs":"Dračí tanec"
   },
   {
      "codename":"rockblast",
      "cs":"SuprŠutr"
   },
   {
      "codename":"shockwave",
      "cs":"Šoková vlna"
   },
   {
      "codename":"waterpulse",
      "cs":"Vodní puls"
   },
   {
      "codename":"doomdesire",
      "cs":"Vůle osudu"
   },
   {
      "codename":"psychoboost",
      "cs":"Psyzvýšení"
   },
   {
      "codename":"roost",
      "cs":"Hřadování"
   },
   {
      "codename":"gravity",
      "cs":"Gravitace"
   },
   {
      "codename":"miracleeye",
      "cs":"Zázračné oko"
   },
   {
      "codename":"wakeupslap",
      "cs":"Facka na probuzení"
   },
   {
      "codename":"hammerarm",
      "cs":"Kladivová pěst"
   },
   {
      "codename":"gyroball",
      "cs":"Gyrokáča"
   },
   {
      "codename":"healingwish",
      "cs":"Léčivé přání"
   },
   {
      "codename":"brine",
      "cs":"Slaná voda"
   },
   {
      "codename":"naturalgift",
      "cs":"Dar přírody"
   },
   {
      "codename":"feint",
      "cs":"Lest"
   },
   {
      "codename":"pluck",
      "cs":"Vyklovnutí"
   },
   {
      "codename":"tailwind",
      "cs":"Vítr v zádech"
   },
   {
      "codename":"acupressure",
      "cs":"Akupresura"
   },
   {
      "codename":"metalburst",
      "cs":"Ocelový výbuch"
   },
   {
      "codename":"uturn",
      "cs":"Otočka"
   },
   {
      "codename":"closecombat",
      "cs":"Boj na blízko"
   },
   {
      "codename":"payback",
      "cs":"Vyrovnání účtů"
   },
   {
      "codename":"assurance",
      "cs":"Ujištění"
   },
   {
      "codename":"embargo",
      "cs":"Embargo"
   },
   {
      "codename":"fling",
      "cs":"Hod"
   },
   {
      "codename":"psychoshift",
      "cs":"Psychopřesun"
   },
   {
      "codename":"trumpcard",
      "cs":"Trumf"
   },
   {
      "codename":"healblock",
      "cs":"Blokace léčení"
   },
   {
      "codename":"wringout",
      "cs":"Vyždímání"
   },
   {
      "codename":"powertrick",
      "cs":"Trik síly"
   },
   {
      "codename":"gastroacid",
      "cs":"Žaludeční šťáva"
   },
   {
      "codename":"luckychant",
      "cs":"Popěvek pro štěstí"
   },
   {
      "codename":"mefirst",
      "cs":"Nejdřív já"
   },
   {
      "codename":"copycat",
      "cs":"Opičení"
   },
   {
      "codename":"powerswap",
      "cs":"Výměna síly"
   },
   {
      "codename":"guardswap",
      "cs":"Výměna obrany"
   },
   {
      "codename":"punishment",
      "cs":"Co proto"
   },
   {
      "codename":"lastresort",
      "cs":"Záloha"
   },
   {
      "codename":"worryseed",
      "cs":"Semínko starostí"
   },
   {
      "codename":"suckerpunch",
      "cs":"Podpásovka"
   },
   {
      "codename":"toxicspikes",
      "cs":"Toxické ostny"
   },
   {
      "codename":"heartswap",
      "cs":"Výměna srdcí"
   },
   {
      "codename":"aquaring",
      "cs":"Vodní kruh"
   },
   {
      "codename":"magnetrise",
      "cs":"Magnetický zdvih"
   },
   {
      "codename":"flareblitz",
      "cs":"Plamenný nálet"
   },
   {
      "codename":"forcepalm",
      "cs":"Použití Síly"
   },
   {
      "codename":"aurasphere",
      "cs":"Kulová aura"
   },
   {
      "codename":"rockpolish",
      "cs":"Broušení kamene"
   },
   {
      "codename":"poisonjab",
      "cs":"Jedové bodnutí"
   },
   {
      "codename":"darkpulse",
      "cs":"Temný puls"
   },
   {
      "codename":"nightslash",
      "cs":"Rozpárání"
   },
   {
      "codename":"aquatail",
      "cs":"Vodní ocas"
   },
   {
      "codename":"seedbomb",
      "cs":"Semínková puma"
   },
   {
      "codename":"airslash",
      "cs":"Vzdušný sek"
   },
   {
      "codename":"xscissor",
      "cs":"XŠmik"
   },
   {
      "codename":"bugbuzz",
      "cs":"Zabzučení"
   },
   {
      "codename":"dragonpulse",
      "cs":"Dračí puls"
   },
   {
      "codename":"dragonrush",
      "cs":"Dračí zteč"
   },
   {
      "codename":"powergem",
      "cs":"Síla drahokamu"
   },
   {
      "codename":"drainpunch",
      "cs":"Vysávací úder"
   },
   {
      "codename":"vacuumwave",
      "cs":"Vlna vzduchoprázdna"
   },
   {
      "codename":"focusblast",
      "cs":"Usměrnění Síly"
   },
   {
      "codename":"energyball",
      "cs":"Míč energie"
   },
   {
      "codename":"bravebird",
      "cs":"Nálet"
   },
   {
      "codename":"earthpower",
      "cs":"Síla Země"
   },
   {
      "codename":"switcheroo",
      "cs":"Zamíchání"
   },
   {
      "codename":"gigaimpact",
      "cs":"Meganáraz"
   },
   {
      "codename":"nastyplot",
      "cs":"Intrika"
   },
   {
      "codename":"bulletpunch",
      "cs":"Výstřelový úder"
   },
   {
      "codename":"avalanche",
      "cs":"Lavina"
   },
   {
      "codename":"iceshard",
      "cs":"Střechýle"
   },
   {
      "codename":"shadowclaw",
      "cs":"Stínový dráp"
   },
   {
      "codename":"thunderfang",
      "cs":"Hromový tesák"
   },
   {
      "codename":"icefang",
      "cs":"Ledový tesák"
   },
   {
      "codename":"firefang",
      "cs":"Ohnivý tesák"
   },
   {
      "codename":"shadowsneak",
      "cs":"Plížení stínem"
   },
   {
      "codename":"mudbomb",
      "cs":"Blátivá puma"
   },
   {
      "codename":"psychocut",
      "cs":"Psychosek"
   },
   {
      "codename":"zenheadbutt",
      "cs":"Zenová hlavička"
   },
   {
      "codename":"mirrorshot",
      "cs":"Zrcadlová střela"
   },
   {
      "codename":"flashcannon",
      "cs":"Světelné dělo"
   },
   {
      "codename":"rockclimb",
      "cs":"Horolezectví"
   },
   {
      "codename":"defog",
      "cs":"Odmlžení"
   },
   {
      "codename":"trickroom",
      "cs":"Komnata triků"
   },
   {
      "codename":"dracometeor",
      "cs":"Dračí meteor"
   },
   {
      "codename":"discharge",
      "cs":"Vybití"
   },
   {
      "codename":"lavaplume",
      "cs":"Výbuch lávy"
   },
   {
      "codename":"leafstorm",
      "cs":"Listová bouře"
   },
   {
      "codename":"powerwhip",
      "cs":"Šleh bičem"
   },
   {
      "codename":"rockwrecker",
      "cs":"Kamenné dělo"
   },
   {
      "codename":"crosspoison",
      "cs":"Křížový jed"
   },
   {
      "codename":"gunkshot",
      "cs":"Zásah sajrajtem"
   },
   {
      "codename":"ironhead",
      "cs":"Železná hlava"
   },
   {
      "codename":"magnetbomb",
      "cs":"Magnetická puma"
   },
   {
      "codename":"stoneedge",
      "cs":"Kamenné ostří"
   },
   {
      "codename":"captivate",
      "cs":"Okouzlení"
   },
   {
      "codename":"stealthrock",
      "cs":"Zákeřný kámen"
   },
   {
      "codename":"grassknot",
      "cs":"Uzel z trávy"
   },
   {
      "codename":"chatter",
      "cs":"Žvanění"
   },
   {
      "codename":"judgment",
      "cs":"Rozsudek"
   },
   {
      "codename":"bugbite",
      "cs":"Hmyzí kousanec"
   },
   {
      "codename":"chargebeam",
      "cs":"Paprsek náboje"
   },
   {
      "codename":"woodhammer",
      "cs":"Dřevěné kladivo"
   },
   {
      "codename":"aquajet",
      "cs":"Proud vody"
   },
   {
      "codename":"attackorder",
      "cs":"Příkaz k útoku"
   },
   {
      "codename":"defendorder",
      "cs":"Příkaz k obraně"
   },
   {
      "codename":"healorder",
      "cs":"Příkaz vyléčit"
   },
   {
      "codename":"headsmash",
      "cs":"Drcení hlavou"
   },
   {
      "codename":"doublehit",
      "cs":"Dvojitá rána"
   },
   {
      "codename":"roaroftime",
      "cs":"Řev času"
   },
   {
      "codename":"spacialrend",
      "cs":"Trhlina prostoru"
   },
   {
      "codename":"lunardance",
      "cs":"Měsíční tanec"
   },
   {
      "codename":"crushgrip",
      "cs":"Drtivý stisk"
   },
   {
      "codename":"magmastorm",
      "cs":"Bouře lávy"
   },
   {
      "codename":"darkvoid",
      "cs":"Temná prázdnota"
   },
   {
      "codename":"seedflare",
      "cs":"Semínková světlice"
   },
   {
      "codename":"ominouswind",
      "cs":"Zlověstný vítr"
   },
   {
      "codename":"shadowforce",
      "cs":"Potopení do stínů"
   },
   {
      "codename":"honeclaws",
      "cs":""
   },
   {
      "codename":"wideguard",
      "cs":""
   },
   {
      "codename":"guardsplit",
      "cs":""
   },
   {
      "codename":"powersplit",
      "cs":""
   },
   {
      "codename":"wonderroom",
      "cs":""
   },
   {
      "codename":"psyshock",
      "cs":""
   },
   {
      "codename":"venoshock",
      "cs":""
   },
   {
      "codename":"autotomize",
      "cs":""
   },
   {
      "codename":"ragepowder",
      "cs":""
   },
   {
      "codename":"telekinesis",
      "cs":""
   },
   {
      "codename":"magicroom",
      "cs":""
   },
   {
      "codename":"smackdown",
      "cs":""
   },
   {
      "codename":"stormthrow",
      "cs":""
   },
   {
      "codename":"flameburst",
      "cs":""
   },
   {
      "codename":"sludgewave",
      "cs":""
   },
   {
      "codename":"quiverdance",
      "cs":""
   },
   {
      "codename":"heavyslam",
      "cs":""
   },
   {
      "codename":"synchronoise",
      "cs":""
   },
   {
      "codename":"electroball",
      "cs":""
   },
   {
      "codename":"soak",
      "cs":""
   },
   {
      "codename":"flamecharge",
      "cs":""
   },
   {
      "codename":"coil",
      "cs":""
   },
   {
      "codename":"lowsweep",
      "cs":""
   },
   {
      "codename":"acidspray",
      "cs":""
   },
   {
      "codename":"foulplay",
      "cs":""
   },
   {
      "codename":"simplebeam",
      "cs":""
   },
   {
      "codename":"entrainment",
      "cs":""
   },
   {
      "codename":"afteryou",
      "cs":""
   },
   {
      "codename":"round",
      "cs":""
   },
   {
      "codename":"echoedvoice",
      "cs":""
   },
   {
      "codename":"chipaway",
      "cs":""
   },
   {
      "codename":"clearsmog",
      "cs":""
   },
   {
      "codename":"storedpower",
      "cs":""
   },
   {
      "codename":"quickguard",
      "cs":""
   },
   {
      "codename":"allyswitch",
      "cs":""
   },
   {
      "codename":"scald",
      "cs":""
   },
   {
      "codename":"shellsmash",
      "cs":""
   },
   {
      "codename":"healpulse",
      "cs":""
   },
   {
      "codename":"hex",
      "cs":""
   },
   {
      "codename":"skydrop",
      "cs":""
   },
   {
      "codename":"shiftgear",
      "cs":""
   },
   {
      "codename":"circlethrow",
      "cs":""
   },
   {
      "codename":"incinerate",
      "cs":""
   },
   {
      "codename":"quash",
      "cs":""
   },
   {
      "codename":"acrobatics",
      "cs":""
   },
   {
      "codename":"reflecttype",
      "cs":""
   },
   {
      "codename":"retaliate",
      "cs":""
   },
   {
      "codename":"finalgambit",
      "cs":""
   },
   {
      "codename":"bestow",
      "cs":""
   },
   {
      "codename":"inferno",
      "cs":""
   },
   {
      "codename":"waterpledge",
      "cs":""
   },
   {
      "codename":"firepledge",
      "cs":""
   },
   {
      "codename":"grasspledge",
      "cs":""
   },
   {
      "codename":"voltswitch",
      "cs":""
   },
   {
      "codename":"strugglebug",
      "cs":""
   },
   {
      "codename":"bulldoze",
      "cs":""
   },
   {
      "codename":"frostbreath",
      "cs":""
   },
   {
      "codename":"dragontail",
      "cs":""
   },
   {
      "codename":"workup",
      "cs":""
   },
   {
      "codename":"electroweb",
      "cs":""
   },
   {
      "codename":"wildcharge",
      "cs":""
   },
   {
      "codename":"drillrun",
      "cs":""
   },
   {
      "codename":"dualchop",
      "cs":""
   },
   {
      "codename":"heartstamp",
      "cs":""
   },
   {
      "codename":"hornleech",
      "cs":""
   },
   {
      "codename":"sacredsword",
      "cs":""
   },
   {
      "codename":"razorshell",
      "cs":""
   },
   {
      "codename":"heatcrash",
      "cs":""
   },
   {
      "codename":"leaftornado",
      "cs":""
   },
   {
      "codename":"steamroller",
      "cs":""
   },
   {
      "codename":"cottonguard",
      "cs":""
   },
   {
      "codename":"nightdaze",
      "cs":""
   },
   {
      "codename":"psystrike",
      "cs":""
   },
   {
      "codename":"tailslap",
      "cs":""
   },
   {
      "codename":"hurricane",
      "cs":""
   },
   {
      "codename":"headcharge",
      "cs":""
   },
   {
      "codename":"geargrind",
      "cs":""
   },
   {
      "codename":"searingshot",
      "cs":""
   },
   {
      "codename":"technoblast",
      "cs":""
   },
   {
      "codename":"relicsong",
      "cs":""
   },
   {
      "codename":"secretsword",
      "cs":""
   },
   {
      "codename":"glaciate",
      "cs":""
   },
   {
      "codename":"boltstrike",
      "cs":""
   },
   {
      "codename":"blueflare",
      "cs":""
   },
   {
      "codename":"fierydance",
      "cs":""
   },
   {
      "codename":"freezeshock",
      "cs":""
   },
   {
      "codename":"iceburn",
      "cs":""
   },
   {
      "codename":"snarl",
      "cs":""
   },
   {
      "codename":"iciclecrash",
      "cs":""
   },
   {
      "codename":"vcreate",
      "cs":""
   },
   {
      "codename":"fusionflare",
      "cs":""
   },
   {
      "codename":"fusionbolt",
      "cs":""
   },
   {
      "codename":"flyingpress",
      "cs":""
   },
   {
      "codename":"matblock",
      "cs":""
   },
   {
      "codename":"belch",
      "cs":""
   },
   {
      "codename":"rototiller",
      "cs":""
   },
   {
      "codename":"stickyweb",
      "cs":""
   },
   {
      "codename":"fellstinger",
      "cs":""
   },
   {
      "codename":"phantomforce",
      "cs":""
   },
   {
      "codename":"trickortreat",
      "cs":""
   },
   {
      "codename":"nobleroar",
      "cs":""
   },
   {
      "codename":"iondeluge",
      "cs":""
   },
   {
      "codename":"paraboliccharge",
      "cs":""
   },
   {
      "codename":"forestscurse",
      "cs":""
   },
   {
      "codename":"petalblizzard",
      "cs":""
   },
   {
      "codename":"freezedry",
      "cs":""
   },
   {
      "codename":"disarmingvoice",
      "cs":""
   },
   {
      "codename":"partingshot",
      "cs":""
   },
   {
      "codename":"topsyturvy",
      "cs":""
   },
   {
      "codename":"drainingkiss",
      "cs":""
   },
   {
      "codename":"craftyshield",
      "cs":""
   },
   {
      "codename":"flowershield",
      "cs":""
   },
   {
      "codename":"grassyterrain",
      "cs":""
   },
   {
      "codename":"mistyterrain",
      "cs":""
   },
   {
      "codename":"electrify",
      "cs":""
   },
   {
      "codename":"playrough",
      "cs":""
   },
   {
      "codename":"fairywind",
      "cs":""
   },
   {
      "codename":"moonblast",
      "cs":""
   },
   {
      "codename":"boomburst",
      "cs":""
   },
   {
      "codename":"fairylock",
      "cs":""
   },
   {
      "codename":"kingsshield",
      "cs":""
   },
   {
      "codename":"playnice",
      "cs":""
   },
   {
      "codename":"confide",
      "cs":""
   },
   {
      "codename":"diamondstorm",
      "cs":""
   },
   {
      "codename":"steameruption",
      "cs":""
   },
   {
      "codename":"hyperspacehole",
      "cs":""
   },
   {
      "codename":"watershuriken",
      "cs":""
   },
   {
      "codename":"mysticalfire",
      "cs":""
   },
   {
      "codename":"spikyshield",
      "cs":""
   },
   {
      "codeename":"aromaticmist",
      "cs":""
   },
   {
      "codename":"eerieimpulse",
      "cs":""
   },
   {
      "codename":"venomdrench",
      "cs":""
   },
   {
      "codename":"powder",
      "cs":""
   },
   {
      "codename":"geomancy",
      "cs":""
   },
   {
      "codename":"magneticflux",
      "cs":""
   },
   {
      "codename":"happyhour",
      "cs":""
   },
   {
      "codename":"electricterrain",
      "cs":""
   },
   {
      "codename":"dazzlinggleam",
      "cs":""
   },
   {
      "codename":"celebrate",
      "cs":""
   },
   {
      "codename":"holdhands",
      "cs":""
   },
   {
      "codename":"babydolleyes",
      "cs":""
   },
   {
      "codename":"nuzzle",
      "cs":""
   },
   {
      "codename":"holdback",
      "cs":""
   },
   {
      "codename":"infestation",
      "cs":""
   },
   {
      "codename":"poweruppunch",
      "cs":""
   },
   {
      "codename":"oblivionwing",
      "cs":""
   },
   {
      "codename":"thousandarrows",
      "cs":""
   },
   {
      "codename":"thousandwaves",
      "cs":""
   },
   {
      "codename":"landswrath",
      "cs":""
   },
   {
      "codename":"lightofruin",
      "cs":""
   },
   {
      "codename":"originpulse",
      "cs":""
   },
   {
      "codename":"precipiceblades",
      "cs":""
   },
   {
      "codename":"dragonascent",
      "cs":""
   },
   {
      "codename":"hyperspacefury",
      "cs":""
   },
   {
      "codename":"breakneckblitzphysical",
      "cs":""
   },
   {
      "codename":"breakneckblitzspecial",
      "cs":""
   },
   {
      "codename":"alloutpummelingphysical",
      "cs":""
   },
   {
      "codename":"alloutpummelingspecial",
      "cs":""
   },
   {
      "codename":"supersonicskystrikephysical",
      "cs":""
   },
   {
      "codename":"supersonicskystrikespecial",
      "cs":""
   },
   {
      "codename":"aciddownpourphysical",
      "cs":""
   },
   {
      "codename":"aciddownpourspecial",
      "cs":""
   },
   {
      "codename":"tectonicragephysical",
      "cs":""
   },
   {
      "codename":"tectonicragespecial",
      "cs":""
   },
   {
      "codename":"continentalcrushphysical",
      "cs":""
   },
   {
      "codename":"continentalcrushspecial",
      "cs":""
   },
   {
      "codename":"savagespinoutphysical",
      "cs":""
   },
   {
      "codename":"savagespinoutspecial",
      "cs":""
   },
   {
      "codename":"neverendingnightmarephysical",
      "cs":""
   },
   {
      "codename":"neverendingnightmarespecial",
      "cs":""
   },
   {
      "codename":"corkscrewcrashphysical",
      "cs":""
   },
   {
      "codename":"corkscrewcrashspecial",
      "cs":""
   },
   {
      "codename":"infernooverdrivephysical",
      "cs":""
   },
   {
      "codename":"infernooverdrivespecial",
      "cs":""
   },
   {
      "codename":"hydrovortexphysical",
      "cs":""
   },
   {
      "codename":"hydrovortexspecial",
      "cs":""
   },
   {
      "codename":"bloomdoomphysical",
      "cs":""
   },
   {
      "codename":"bloomdoomspecial",
      "cs":""
   },
   {
      "codename":"gigavolthavocphysical",
      "cs":""
   },
   {
      "codename":"gigavolthavocspecial",
      "cs":""
   },
   {
      "codename":"shatteredpsychephysical",
      "cs":""
   },
   {
      "codename":"shatteredpsychespecial",
      "cs":""
   },
   {
      "codename":"subzeroslammerphysical",
      "cs":""
   },
   {
      "codename":"subzeroslammerspecial",
      "cs":""
   },
   {
      "codename":"devastatingdrakephysical",
      "cs":""
   },
   {
      "codename":"devastatingdrakespecial",
      "cs":""
   },
   {
      "codename":"blackholeeclipsephysical",
      "cs":""
   },
   {
      "codename":"blackholeeclipsespecial",
      "cs":""
   },
   {
      "codename":"twinkletacklephysical",
      "cs":""
   },
   {
      "codename":"twinkletacklespecial",
      "cs":""
   },
   {
      "codename":"catastropika",
      "cs":""
   },
   {
      "codename":"shoreup",
      "cs":""
   },
   {
      "codename":"firstimpression",
      "cs":""
   },
   {
      "codename":"banefulbunker",
      "cs":""
   },
   {
      "codename":"spiritshackle",
      "cs":""
   },
   {
      "codename":"darkestlariat",
      "cs":""
   },
   {
      "codename":"sparklingaria",
      "cs":""
   },
   {
      "codename":"icehammer",
      "cs":""
   },
   {
      "codename":"floralhealing",
      "cs":""
   },
   {
      "codename":"highhorsepower",
      "cs":""
   },
   {
      "codename":"strengthsap",
      "cs":""
   },
   {
      "codename":"solarblade",
      "cs":""
   },
   {
      "codename":"leafage",
      "cs":""
   },
   {
      "codename":"spotlight",
      "cs":""
   },
   {
      "codename":"toxicthread",
      "cs":""
   },
   {
      "codename":"laserfocus",
      "cs":""
   },
   {
      "codename":"gearup",
      "cs":""
   },
   {
      "codename":"throatchop",
      "cs":""
   },
   {
      "codename":"pollenpuff",
      "cs":""
   },
   {
      "codename":"anchorshot",
      "cs":""
   },
   {
      "codename":"psychicterrain",
      "cs":""
   },
   {
      "codename":"lunge",
      "cs":""
   },
   {
      "codename":"firelash",
      "cs":""
   },
   {
      "codename":"powertrip",
      "cs":""
   },
   {
      "codename":"burnup",
      "cs":""
   },
   {
      "codename":"speedswap",
      "cs":""
   },
   {
      "codename":"smartstrike",
      "cs":""
   },
   {
      "codename":"purify",
      "cs":""
   },
   {
      "codename":"revelationdance",
      "cs":""
   },
   {
      "codename":"coreenforcer",
      "cs":""
   },
   {
      "codename":"tropkick",
      "cs":""
   },
   {
      "codename":"instruct",
      "cs":""
   },
   {
      "codename":"beakblast",
      "cs":""
   },
   {
      "codename":"clangingscales",
      "cs":""
   },
   {
      "codename":"dragonhammer",
      "cs":""
   },
   {
      "codename":"brutalswing",
      "cs":""
   },
   {
      "codename":"auroraveil",
      "cs":""
   },
   {
      "codename":"sinisterarrowraid",
      "cs":""
   },
   {
      "codename":"maliciousmoonsault",
      "cs":""
   },
   {
      "codename":"oceanicoperetta",
      "cs":""
   },
   {
      "codename":"guardianofalola",
      "cs":""
   },
   {
      "codename":"soulstealing7starstrike",
      "cs":""
   },
   {
      "codename":"stokedsparksurfer",
      "cs":""
   },
   {
      "codename":"pulverizingpancake",
      "cs":""
   },
   {
      "codename":"extremeevoboost",
      "cs":""
   },
   {
      "codename":"genesissupernova",
      "cs":""
   },
   {
      "codename":"shelltrap",
      "cs":""
   },
   {
      "codename":"fleurcannon",
      "cs":""
   },
   {
      "codename":"psychicfangs",
      "cs":""
   },
   {
      "codename":"stompingtantrum",
      "cs":""
   },
   {
      "codename":"shadowbone",
      "cs":""
   },
   {
      "codename":"accelerock",
      "cs":""
   },
   {
      "codename":"liquidation",
      "cs":""
   },
   {
      "codename":"prismaticlaser",
      "cs":""
   },
   {
      "codename":"spectralthief",
      "cs":""
   },
   {
      "codename":"sunsteelstrike",
      "cs":""
   },
   {
      "codename":"moongeistbeam",
      "cs":""
   },
   {
      "codename":"tearfullook",
      "cs":""
   },
   {
      "codename":"zingzap",
      "cs":""
   },
   {
      "codename":"naturesmadness",
      "cs":""
   },
   {
      "codename":"multiattack",
      "cs":""
   },
   {
      "codename":"10000000voltthunderbolt",
      "cs":""
   },
   {
      "codename":"mindblown",
      "cs":""
   },
   {
      "codename":"plasmafists",
      "cs":""
   },
   {
      "codename":"photongeyser",
      "cs":""
   },
   {
      "codename":"lightthatburnsthesky",
      "cs":""
   },
   {
      "codename":"searingsunrazesmash",
      "cs":""
   },
   {
      "codename":"menacingmoonrazemaelstrom",
      "cs":""
   },
   {
      "codename":"letssnuggleforever",
      "cs":""
   },
   {
      "codename":"splinteredstormshards",
      "cs":""
   },
   {
      "codename":"clangoroussoulblaze",
      "cs":""
   },
   {
      "codename":"zippyzap",
      "cs":""
   },
   {
      "codename":"splishysplash",
      "cs":""
   },
   {
      "codename":"floatyfall",
      "cs":""
   },
   {
      "codename":"pikapapow",
      "cs":""
   },
   {
      "codename":"bouncybubble",
      "cs":""
   },
   {
      "codename":"buzzybuzz",
      "cs":""
   },
   {
      "codename":"sizzlyslide",
      "cs":""
   },
   {
      "codename":"glitzyglow",
      "cs":""
   },
   {
      "codename":"baddybad",
      "cs":""
   },
   {
      "codename":"sappyseed",
      "cs":""
   },
   {
      "codename":"freezyfrost",
      "cs":""
   },
   {
      "codename":"sparklyswirl",
      "cs":""
   },
   {
      "codename":"veeveevolley",
      "cs":""
   },
   {
      "codename":"doubleironbash",
      "cs":""
   },
   {
      "codename":"maxguard",
      "cs":""
   },
   {
      "codename":"dynamaxcannon",
      "cs":""
   },
   {
      "codename":"snipeshot",
      "cs":""
   },
   {
      "codename":"jawlock",
      "cs":""
   },
   {
      "codename":"stuffcheeks",
      "cs":""
   },
   {
      "codename":"noretreat",
      "cs":""
   },
   {
      "codename":"tarshot",
      "cs":""
   },
   {
      "codename":"magicpowder",
      "cs":""
   },
   {
      "codename":"dragondarts",
      "cs":""
   },
   {
      "codename":"teatime",
      "cs":""
   },
   {
      "codename":"octolock",
      "cs":""
   },
   {
      "codename":"boltbeak",
      "cs":""
   },
   {
      "codename":"fishiousrend",
      "cs":""
   },
   {
      "codename":"courtchange",
      "cs":""
   },
   {
      "codename":"maxflare",
      "cs":""
   },
   {
      "codename":"maxflutterby",
      "cs":""
   },
   {
      "codename":"maxlightning",
      "cs":""
   },
   {
      "codename":"maxstrike",
      "cs":""
   },
   {
      "codename":"maxknuckle",
      "cs":""
   },
   {
      "codename":"maxphantasm",
      "cs":""
   },
   {
      "codename":"maxhailstorm",
      "cs":""
   },
   {
      "codename":"maxooze",
      "cs":""
   },
   {
      "codename":"maxgeyser",
      "cs":""
   },
   {
      "codename":"maxairstream",
      "cs":""
   },
   {
      "codename":"maxstarfall",
      "cs":""
   },
   {
      "codename":"maxwyrmwind",
      "cs":""
   },
   {
      "codename":"maxmindstorm",
      "cs":""
   },
   {
      "codename":"maxrockfall",
      "cs":""
   },
   {
      "codename":"maxquake",
      "cs":""
   },
   {
      "codename":"maxdarkness",
      "cs":""
   },
   {
      "codename":"maxovergrowth",
      "cs":""
   },
   {
      "codename":"maxsteelspike",
      "cs":""
   },
   {
      "codename":"clangoroussoul",
      "cs":""
   },
   {
      "codename":"bodypress",
      "cs":""
   },
   {
      "codename":"decorate",
      "cs":""
   },
   {
      "codename":"drumbeating",
      "cs":""
   },
   {
      "codename":"snaptrap",
      "cs":""
   },
   {
      "codename":"pyroball",
      "cs":""
   },
   {
      "codename":"behemothblade",
      "cs":""
   },
   {
      "codename":"behemothbash",
      "cs":""
   },
   {
      "codename":"aurawheel",
      "cs":""
   },
   {
      "codename":"breakingswipe",
      "cs":""
   },
   {
      "codename":"branchpoke",
      "cs":""
   },
   {
      "codename":"overdrive",
      "cs":""
   },
   {
      "codename":"appleacid",
      "cs":""
   },
   {
      "codename":"gravapple",
      "cs":""
   },
   {
      "codename":"spiritbreak",
      "cs":""
   },
   {
      "codename":"strangesteam",
      "cs":""
   },
   {
      "codename":"lifedew",
      "cs":""
   },
   {
      "codename":"obstruct",
      "cs":""
   },
   {
      "codename":"falsesurrender",
      "cs":""
   },
   {
      "codename":"meteorassault",
      "cs":""
   },
   {
      "codename":"eternabeam",
      "cs":""
   },
   {
      "codename":"steelbeam",
      "cs":""
   },
   {
      "codename":"expandingforce",
      "cs":""
   },
   {
      "codename":"steelroller",
      "cs":""
   },
   {
      "codename":"scaleshot",
      "cs":""
   },
   {
      "codename":"meteorbeam",
      "cs":""
   },
   {
      "codename":"shellsidearm",
      "cs":""
   },
   {
      "codename":"mistyexplosion",
      "cs":""
   },
   {
      "codename":"grassyglide",
      "cs":""
   },
   {
      "codename":"risingvoltage",
      "cs":""
   },
   {
      "codename":"terrainpulse",
      "cs":""
   },
   {
      "codename":"skittersmack",
      "cs":""
   },
   {
      "codename":"burningjealousy",
      "cs":""
   },
   {
      "codename":"lashout",
      "cs":""
   },
   {
      "codename":"poltergeist",
      "cs":""
   },
   {
      "codename":"corrosivegas",
      "cs":""
   },
   {
      "codename":"coaching",
      "cs":""
   },
   {
      "codename":"flipturn",
      "cs":""
   },
   {
      "codename":"tripleaxel",
      "cs":""
   },
   {
      "codename":"dualwingbeat",
      "cs":""
   },
   {
      "codename":"scorchingsands",
      "cs":""
   },
   {
      "codename":"junglehealing",
      "cs":""
   },
   {
      "codename":"wickedblow",
      "cs":""
   },
   {
      "codename":"surgingstrikes",
      "cs":""
   },
   {
      "codename":"thundercage",
      "cs":""
   },
   {
      "codename":"dragonenergy",
      "cs":""
   },
   {  "codename":"freezingglare",
      "cs":""
   },
   {
      "codename":"fierywrath",
      "cs":""
   },
   {
      "codename":"thunderouskick",
      "cs":""
   },
   {
      "codename":"glaciallance",
      "cs":""
   },
   {
      "codename":"astralbarrage",
      "cs":""
   },
   {
      "codename":"eeriespell",
      "cs":""
   },
   {
      "codename":"shadowrush",
      "cs":""
   },
   {
      "codename":"shadowblast",
      "cs":""
   },
   {
      "codename":"shadowblitz",
      "cs":""
   },
   {
      "codename":"shadowbolt",
      "cs":""
   },
   {
      "codename":"shadowbreak",
      "cs":""
   },
   {
      "codename":"shadowchill",
      "cs":""
   },
   {
      "codename":"shadowend",
      "cs":""
   },
   {
      "codename":"shadowfire",
      "cs":""
   },
   {
      "codename":"shadowrave",
      "cs":""
   },
   {
      "codename":"shadowstorm",
      "cs":""
   },
   {
      "codename":"shadowwave",
      "cs":""
   },
   {
      "codename":"shadowdown",
      "cs":""
   },
   {
      "codename":"shadowhalf",
      "cs":""
   },
   {
      "codename":"shadowhold",
      "cs":""
   },
   {
      "codename":"shadowmist",
      "cs":""
   },
   {
      "codename":"shadowpanic",
      "cs":""
   },
   {
      "codename":"shadowshed",
      "cs":""
   },
   {
      "codename":"shadowsky",
      "cs":""
   }
]
