[
   {
      "codename":"syclar",
      "base_form":"syclar",
      "item":"",
      "gender":"",
      "known_move":"",
      "known_move_type":"",
      "location":"",
      "minimum_affection":"",
      "minimum_beauty":"",
      "minimum_happiness":"",
      "minimum_level":"",
      "needs_overworld_rain":"",
      "party_species":"",
      "party_type":"",
      "relative_physical_status":"",
      "time_of_day":"",
      "trade_species":"",
      "trigger":"",
      "turn_upside_down":""
   },
   {
      "codename":"syclant",
      "base_form":"syclar",
      "item":"",
      "gender":"",
      "known_move":"",
      "known_move_type":"",
      "location":"",
      "minimum_affection":"",
      "minimum_beauty":"",
      "minimum_happiness":"",
      "minimum_level":"30",
      "needs_overworld_rain":"",
      "party_species":"",
      "party_type":"",
      "relative_physical_status":"",
      "time_of_day":"",
      "trade_species":"",
      "trigger":"level-up",
      "turn_upside_down":""
   },
   {
      "codename":"embirch",
      "base_form":"embirch",
      "item":"",
      "gender":"",
      "known_move":"",
      "known_move_type":"",
      "location":"",
      "minimum_affection":"",
      "minimum_beauty":"",
      "minimum_happiness":"",
      "minimum_level":"",
      "needs_overworld_rain":"",
      "party_species":"",
      "party_type":"",
      "relative_physical_status":"",
      "time_of_day":"",
      "trade_species":"",
      "trigger":"",
      "turn_upside_down":""
   },
   {
      "codename":"flarelm",
      "base_form":"embirch",
      "item":"",
      "gender":"",
      "known_move":"",
      "known_move_type":"",
      "location":"",
      "minimum_affection":"",
      "minimum_beauty":"",
      "minimum_happiness":"",
      "minimum_level":"24",
      "needs_overworld_rain":"",
      "party_species":"",
      "party_type":"",
      "relative_physical_status":"",
      "time_of_day":"",
      "trade_species":"",
      "trigger":"level-up",
      "turn_upside_down":""
   },
   {
      "codename":"pyroak",
      "base_form":"embirch",
      "item":"",
      "gender":"",
      "known_move":"",
      "known_move_type":"",
      "location":"",
      "minimum_affection":"",
      "minimum_beauty":"",
      "minimum_happiness":"",
      "minimum_level":"38",
      "needs_overworld_rain":"",
      "party_species":"",
      "party_type":"",
      "relative_physical_status":"",
      "time_of_day":"",
      "trade_species":"",
      "trigger":"level-up",
      "turn_upside_down":""
   },
   {
      "codename":"breezi",
      "base_form":"breezi",
      "item":"",
      "gender":"",
      "known_move":"",
      "known_move_type":"",
      "location":"",
      "minimum_affection":"",
      "minimum_beauty":"",
      "minimum_happiness":"",
      "minimum_level":"38",
      "needs_overworld_rain":"",
      "party_species":"",
      "party_type":"",
      "relative_physical_status":"",
      "time_of_day":"",
      "trade_species":"",
      "trigger":"level-up",
      "turn_upside_down":""
   },
   {
      "codename":"fidgit",
      "base_form":"breezi",
      "item":"",
      "gender":"",
      "known_move":"",
      "known_move_type":"",
      "location":"",
      "minimum_affection":"",
      "minimum_beauty":"",
      "minimum_happiness":"",
      "minimum_level":"33",
      "needs_overworld_rain":"",
      "party_species":"",
      "party_type":"",
      "relative_physical_status":"",
      "time_of_day":"",
      "trade_species":"",
      "trigger":"level-up",
      "turn_upside_down":""
   },
   {
      "codename":"rebble",
      "base_form":"rebble",
      "item":"",
      "gender":"",
      "known_move":"",
      "known_move_type":"",
      "location":"",
      "minimum_affection":"",
      "minimum_beauty":"",
      "minimum_happiness":"",
      "minimum_level":"",
      "needs_overworld_rain":"",
      "party_species":"",
      "party_type":"",
      "relative_physical_status":"",
      "time_of_day":"",
      "trade_species":"",
      "trigger":"",
      "turn_upside_down":""
   },
   {
      "codename":"tactite",
      "base_form":"rebble",
      "item":"",
      "gender":"",
      "known_move":"",
      "known_move_type":"",
      "location":"",
      "minimum_affection":"",
      "minimum_beauty":"",
      "minimum_happiness":"",
      "minimum_level":"28",
      "needs_overworld_rain":"",
      "party_species":"",
      "party_type":"",
      "relative_physical_status":"",
      "time_of_day":"",
      "trade_species":"",
      "trigger":"level-up",
      "turn_upside_down":""
   },
   {
      "codename":"stratagem",
      "base_form":"rebble",
      "item":"",
      "gender":"",
      "known_move":"",
      "known_move_type":"",
      "location":"",
      "minimum_affection":"",
      "minimum_beauty":"",
      "minimum_happiness":"",
      "minimum_level":"45",
      "needs_overworld_rain":"",
      "party_species":"",
      "party_type":"",
      "relative_physical_status":"",
      "time_of_day":"",
      "trade_species":"",
      "trigger":"trade",
      "turn_upside_down":""
   },
   {
      "codename":"privatyke",
      "base_form":"privatyke",
      "item":"",
      "gender":"",
      "known_move":"",
      "known_move_type":"",
      "location":"",
      "minimum_affection":"",
      "minimum_beauty":"",
      "minimum_happiness":"",
      "minimum_level":"",
      "needs_overworld_rain":"",
      "party_species":"",
      "party_type":"",
      "relative_physical_status":"",
      "time_of_day":"",
      "trade_species":"",
      "trigger":"",
      "turn_upside_down":""
   },
   {
      "codename":"arghonaut",
      "base_form":"privatyke",
      "item":"",
      "gender":"",
      "known_move":"",
      "known_move_type":"",
      "location":"",
      "minimum_affection":"",
      "minimum_beauty":"",
      "minimum_happiness":"",
      "minimum_level":"37",
      "needs_overworld_rain":"",
      "party_species":"",
      "party_type":"",
      "relative_physical_status":"",
      "time_of_day":"",
      "trade_species":"",
      "trigger":"level-up",
      "turn_upside_down":""
   },
   {
      "codename":"kitsunoh",
      "base_form":"nohface",
      "item":"metalcoat",
      "gender":"",
      "known_move":"",
      "known_move_type":"",
      "location":"",
      "minimum_affection":"",
      "minimum_beauty":"",
      "minimum_happiness":"",
      "minimum_level":"37",
      "needs_overworld_rain":"",
      "party_species":"",
      "party_type":"",
      "relative_physical_status":"",
      "time_of_day":"",
      "trade_species":"",
      "trigger":"trade",
      "turn_upside_down":""
   },
   {
      "codename":"cyclohm",
      "base_form":"duohm",
      "item":"",
      "gender":"",
      "known_move":"",
      "known_move_type":"",
      "location":"",
      "minimum_affection":"",
      "minimum_beauty":"",
      "minimum_happiness":"",
      "minimum_level":"43",
      "needs_overworld_rain":"",
      "party_species":"",
      "party_type":"",
      "relative_physical_status":"",
      "time_of_day":"",
      "trade_species":"",
      "trigger":"level-up",
      "turn_upside_down":""
   },
   {
      "codename":"colossoil",
      "base_form":"dorsoil",
      "item":"",
      "gender":"",
      "known_move":"",
      "known_move_type":"",
      "location":"",
      "minimum_affection":"",
      "minimum_beauty":"",
      "minimum_happiness":"",
      "minimum_level":"39",
      "needs_overworld_rain":"",
      "party_species":"",
      "party_type":"",
      "relative_physical_status":"",
      "time_of_day":"",
      "trade_species":"",
      "trigger":"level-up",
      "turn_upside_down":""
   },
   {
      "codename":"krilowatt",
      "base_form":"protowatt",
      "item":"",
      "gender":"",
      "known_move":"",
      "known_move_type":"",
      "location":"",
      "minimum_affection":"",
      "minimum_beauty":"",
      "minimum_happiness":"",
      "minimum_level":"15",
      "needs_overworld_rain":"",
      "party_species":"",
      "party_type":"",
      "relative_physical_status":"",
      "time_of_day":"",
      "trade_species":"",
      "trigger":"level-up",
      "turn_upside_down":""
   },
   {
      "codename":"voodoll",
      "base_form":"voodoll",
      "item":"",
      "gender":"",
      "known_move":"",
      "known_move_type":"",
      "location":"",
      "minimum_affection":"",
      "minimum_beauty":"",
      "minimum_happiness":"",
      "minimum_level":"",
      "needs_overworld_rain":"",
      "party_species":"",
      "party_type":"",
      "relative_physical_status":"",
      "time_of_day":"",
      "trade_species":"",
      "trigger":"",
      "turn_upside_down":""
   },
   {
      "codename":"voodoom",
      "base_form":"voodoll",
      "item":"",
      "gender":"",
      "known_move":"",
      "known_move_type":"",
      "location":"",
      "minimum_affection":"",
      "minimum_beauty":"",
      "minimum_happiness":"",
      "minimum_level":"32",
      "needs_overworld_rain":"",
      "party_species":"",
      "party_type":"",
      "relative_physical_status":"",
      "time_of_day":"",
      "trade_species":"",
      "trigger":"level-up",
      "turn_upside_down":""
   },
   {
      "codename":"scratchet",
      "base_form":"scratchet",
      "item":"",
      "gender":"",
      "known_move":"",
      "known_move_type":"",
      "location":"",
      "minimum_affection":"",
      "minimum_beauty":"",
      "minimum_happiness":"",
      "minimum_level":"",
      "needs_overworld_rain":"",
      "party_species":"",
      "party_type":"",
      "relative_physical_status":"",
      "time_of_day":"",
      "trade_species":"",
      "trigger":"",
      "turn_upside_down":""
   },
   {
      "codename":"tomohawk",
      "base_form":"scratchet",
      "item":"",
      "gender":"",
      "known_move":"",
      "known_move_type":"",
      "location":"",
      "minimum_affection":"",
      "minimum_beauty":"",
      "minimum_happiness":"",
      "minimum_level":"23",
      "needs_overworld_rain":"",
      "party_species":"",
      "party_type":"",
      "relative_physical_status":"",
      "time_of_day":"",
      "trade_species":"",
      "trigger":"level-up",
      "turn_upside_down":""
   },
   {
      "codename":"necturine",
      "base_form":"necturine",
      "item":"",
      "gender":"",
      "known_move":"",
      "known_move_type":"",
      "location":"",
      "minimum_affection":"",
      "minimum_beauty":"",
      "minimum_happiness":"",
      "minimum_level":"",
      "needs_overworld_rain":"",
      "party_species":"",
      "party_type":"",
      "relative_physical_status":"",
      "time_of_day":"",
      "trade_species":"",
      "trigger":"",
      "turn_upside_down":""
   },
   {
      "codename":"necturna",
      "base_form":"necturine",
      "item":"",
      "gender":"",
      "known_move":"",
      "known_move_type":"",
      "location":"",
      "minimum_affection":"",
      "minimum_beauty":"",
      "minimum_happiness":"",
      "minimum_level":"31",
      "needs_overworld_rain":"",
      "party_species":"",
      "party_type":"",
      "relative_physical_status":"",
      "time_of_day":"",
      "trade_species":"",
      "trigger":"level-up",
      "turn_upside_down":""
   },
   {
      "codename":"cupra",
      "base_form":"cupra",
      "item":"",
      "gender":"",
      "known_move":"",
      "known_move_type":"",
      "location":"",
      "minimum_affection":"",
      "minimum_beauty":"",
      "minimum_happiness":"",
      "minimum_level":"",
      "needs_overworld_rain":"",
      "party_species":"",
      "party_type":"",
      "relative_physical_status":"",
      "time_of_day":"",
      "trade_species":"",
      "trigger":"",
      "turn_upside_down":""
   },
   {
      "codename":"argalis",
      "base_form":"cupra",
      "item":"",
      "gender":"",
      "known_move":"",
      "known_move_type":"",
      "location":"",
      "minimum_affection":"",
      "minimum_beauty":"",
      "minimum_happiness":"",
      "minimum_level":"30",
      "needs_overworld_rain":"",
      "party_species":"",
      "party_type":"",
      "relative_physical_status":"",
      "time_of_day":"",
      "trade_species":"",
      "trigger":"level-up",
      "turn_upside_down":""
   },
   {
      "codename":"aurumoth",
      "base_form":"cupra",
      "item":"",
      "gender":"",
      "known_move":"",
      "known_move_type":"",
      "location":"",
      "minimum_affection":"",
      "minimum_beauty":"",
      "minimum_happiness":"",
      "minimum_level":"50",
      "needs_overworld_rain":"",
      "party_species":"",
      "party_type":"",
      "relative_physical_status":"",
      "time_of_day":"",
      "trade_species":"",
      "trigger":"level-up",
      "turn_upside_down":""
   },
   {
      "codename":"brattler",
      "base_form":"brattler",
      "item":"",
      "gender":"",
      "known_move":"",
      "known_move_type":"",
      "location":"",
      "minimum_affection":"",
      "minimum_beauty":"",
      "minimum_happiness":"",
      "minimum_level":"",
      "needs_overworld_rain":"",
      "party_species":"",
      "party_type":"",
      "relative_physical_status":"",
      "time_of_day":"",
      "trade_species":"",
      "trigger":"",
      "turn_upside_down":""
   },
   {
      "codename":"malaconda",
      "base_form":"brattler",
      "item":"",
      "gender":"",
      "known_move":"",
      "known_move_type":"",
      "location":"",
      "minimum_affection":"",
      "minimum_beauty":"",
      "minimum_happiness":"",
      "minimum_level":"33",
      "needs_overworld_rain":"",
      "party_species":"",
      "party_type":"",
      "relative_physical_status":"",
      "time_of_day":"",
      "trade_species":"",
      "trigger":"level-up",
      "turn_upside_down":""
   },
   {
      "codename":"cawdet",
      "base_form":"cawdet",
      "item":"",
      "gender":"",
      "known_move":"",
      "known_move_type":"",
      "location":"",
      "minimum_affection":"",
      "minimum_beauty":"",
      "minimum_happiness":"",
      "minimum_level":"",
      "needs_overworld_rain":"",
      "party_species":"",
      "party_type":"",
      "relative_physical_status":"",
      "time_of_day":"",
      "trade_species":"",
      "trigger":"",
      "turn_upside_down":""
   },
   {
      "codename":"cawmodore",
      "base_form":"cawdet",
      "item":"",
      "gender":"",
      "known_move":"",
      "known_move_type":"",
      "location":"",
      "minimum_affection":"",
      "minimum_beauty":"",
      "minimum_happiness":"",
      "minimum_level":"33",
      "needs_overworld_rain":"",
      "party_species":"",
      "party_type":"",
      "relative_physical_status":"",
      "time_of_day":"",
      "trade_species":"",
      "trigger":"level-up",
      "turn_upside_down":""
   },
   {
      "codename":"volkritter",
      "base_form":"volkritter",
      "item":"",
      "gender":"",
      "known_move":"",
      "known_move_type":"",
      "location":"",
      "minimum_affection":"",
      "minimum_beauty":"",
      "minimum_happiness":"",
      "minimum_level":"",
      "needs_overworld_rain":"",
      "party_species":"",
      "party_type":"",
      "relative_physical_status":"",
      "time_of_day":"",
      "trade_species":"",
      "trigger":"",
      "turn_upside_down":""
   },
   {
      "codename":"volkraken",
      "base_form":"volkritter",
      "item":"",
      "gender":"",
      "known_move":"",
      "known_move_type":"",
      "location":"",
      "minimum_affection":"",
      "minimum_beauty":"",
      "minimum_happiness":"",
      "minimum_level":"34",
      "needs_overworld_rain":"",
      "party_species":"",
      "party_type":"",
      "relative_physical_status":"",
      "time_of_day":"",
      "trade_species":"",
      "trigger":"level-up",
      "turn_upside_down":""
   },
   {
      "codename":"snugglow",
      "base_form":"snugglow",
      "item":"",
      "gender":"",
      "known_move":"",
      "known_move_type":"",
      "location":"",
      "minimum_affection":"",
      "minimum_beauty":"",
      "minimum_happiness":"",
      "minimum_level":"",
      "needs_overworld_rain":"",
      "party_species":"",
      "party_type":"",
      "relative_physical_status":"",
      "time_of_day":"",
      "trade_species":"",
      "trigger":"",
      "turn_upside_down":""
   },
   {
      "codename":"plasmanta",
      "base_form":"snugglow",
      "item":"",
      "gender":"",
      "known_move":"",
      "known_move_type":"",
      "location":"",
      "minimum_affection":"",
      "minimum_beauty":"",
      "minimum_happiness":"",
      "minimum_level":"29",
      "needs_overworld_rain":"",
      "party_species":"",
      "party_type":"",
      "relative_physical_status":"",
      "time_of_day":"",
      "trade_species":"",
      "trigger":"level-up",
      "turn_upside_down":""
   },
   {
      "codename":"floatoy",
      "base_form":"floatoy",
      "item":"",
      "gender":"",
      "known_move":"",
      "known_move_type":"",
      "location":"",
      "minimum_affection":"",
      "minimum_beauty":"",
      "minimum_happiness":"",
      "minimum_level":"",
      "needs_overworld_rain":"",
      "party_species":"",
      "party_type":"",
      "relative_physical_status":"",
      "time_of_day":"",
      "trade_species":"",
      "trigger":"",
      "turn_upside_down":""
   },
   {
      "codename":"caimanoe",
      "base_form":"floatoy",
      "item":"",
      "gender":"",
      "known_move":"",
      "known_move_type":"",
      "location":"",
      "minimum_affection":"",
      "minimum_beauty":"",
      "minimum_happiness":"",
      "minimum_level":"21",
      "needs_overworld_rain":"",
      "party_species":"",
      "party_type":"",
      "relative_physical_status":"",
      "time_of_day":"",
      "trade_species":"",
      "trigger":"level-up",
      "turn_upside_down":""
   },
   {
      "codename":"naviathan",
      "base_form":"floatoy",
      "item":"",
      "gender":"",
      "known_move":"",
      "known_move_type":"",
      "location":"",
      "minimum_affection":"",
      "minimum_beauty":"",
      "minimum_happiness":"",
      "minimum_level":"40",
      "needs_overworld_rain":"",
      "party_species":"",
      "party_type":"",
      "relative_physical_status":"",
      "time_of_day":"",
      "trade_species":"",
      "trigger":"",
      "turn_upside_down":""
   },
   {
      "codename":"pluffle",
      "base_form":"pluffle",
      "item":"",
      "gender":"",
      "known_move":"",
      "known_move_type":"",
      "location":"",
      "minimum_affection":"",
      "minimum_beauty":"",
      "minimum_happiness":"",
      "minimum_level":"",
      "needs_overworld_rain":"",
      "party_species":"",
      "party_type":"",
      "relative_physical_status":"",
      "time_of_day":"",
      "trade_species":"",
      "trigger":"",
      "turn_upside_down":""
   },
   {
      "codename":"kerfluffle",
      "base_form":"pluffle",
      "item":"",
      "gender":"",
      "known_move":"playrough",
      "known_move_type":"",
      "location":"",
      "minimum_affection":"",
      "minimum_beauty":"",
      "minimum_happiness":"",
      "minimum_level":"",
      "needs_overworld_rain":"",
      "party_species":"",
      "party_type":"",
      "relative_physical_status":"",
      "time_of_day":"",
      "trade_species":"",
      "trigger":"move",
      "turn_upside_down":""
   },
   {
      "codename":"mumbao",
      "base_form":"mumbao",
      "item":"",
      "gender":"",
      "known_move":"",
      "known_move_type":"",
      "location":"",
      "minimum_affection":"",
      "minimum_beauty":"",
      "minimum_happiness":"",
      "minimum_level":"",
      "needs_overworld_rain":"",
      "party_species":"",
      "party_type":"",
      "relative_physical_status":"",
      "time_of_day":"",
      "trade_species":"",
      "trigger":"",
      "turn_upside_down":""
   },
   {
      "codename":"jumbao",
      "base_form":"mumbao",
      "item":"",
      "gender":"",
      "known_move":"",
      "known_move_type":"",
      "location":"",
      "minimum_affection":"",
      "minimum_beauty":"",
      "minimum_happiness":"",
      "minimum_level":"",
      "needs_overworld_rain":"",
      "party_species":"",
      "party_type":"",
      "relative_physical_status":"",
      "time_of_day":"day",
      "trade_species":"",
      "trigger":"level-friendship",
      "turn_upside_down":""
   },
   {
      "codename":"fawnifer",
      "base_form":"fawnifer",
      "item":"",
      "gender":"",
      "known_move":"",
      "known_move_type":"",
      "location":"",
      "minimum_affection":"",
      "minimum_beauty":"",
      "minimum_happiness":"",
      "minimum_level":"",
      "needs_overworld_rain":"",
      "party_species":"",
      "party_type":"",
      "relative_physical_status":"",
      "time_of_day":"",
      "trade_species":"",
      "trigger":"",
      "turn_upside_down":""
   },
   {
      "codename":"electrelk",
      "base_form":"fawnifer",
      "item":"",
      "gender":"",
      "known_move":"",
      "known_move_type":"",
      "location":"",
      "minimum_affection":"",
      "minimum_beauty":"",
      "minimum_happiness":"",
      "minimum_level":"17",
      "needs_overworld_rain":"",
      "party_species":"",
      "party_type":"",
      "relative_physical_status":"",
      "time_of_day":"",
      "trade_species":"",
      "trigger":"level-up",
      "turn_upside_down":""
   },
   {
      "codename":"caribolt",
      "base_form":"fawnifer",
      "item":"",
      "gender":"",
      "known_move":"",
      "known_move_type":"",
      "location":"",
      "minimum_affection":"",
      "minimum_beauty":"",
      "minimum_happiness":"",
      "minimum_level":"34",
      "needs_overworld_rain":"",
      "party_species":"",
      "party_type":"",
      "relative_physical_status":"",
      "time_of_day":"",
      "trade_species":"",
      "trigger":"level-up",
      "turn_upside_down":""
   },
   {
      "codename":"smogecko",
      "base_form":"smogecko",
      "item":"",
      "gender":"",
      "known_move":"",
      "known_move_type":"",
      "location":"",
      "minimum_affection":"",
      "minimum_beauty":"",
      "minimum_happiness":"",
      "minimum_level":"",
      "needs_overworld_rain":"",
      "party_species":"",
      "party_type":"",
      "relative_physical_status":"",
      "time_of_day":"",
      "trade_species":"",
      "trigger":"",
      "turn_upside_down":""
   },
   {
      "codename":"smoguana",
      "base_form":"smogecko",
      "item":"",
      "gender":"",
      "known_move":"",
      "known_move_type":"",
      "location":"",
      "minimum_affection":"",
      "minimum_beauty":"",
      "minimum_happiness":"",
      "minimum_level":"15",
      "needs_overworld_rain":"",
      "party_species":"",
      "party_type":"",
      "relative_physical_status":"",
      "time_of_day":"",
      "trade_species":"",
      "trigger":"level-up",
      "turn_upside_down":""
   },
   {
      "codename":"smokomodo",
      "base_form":"smogecko",
      "item":"",
      "gender":"",
      "known_move":"",
      "known_move_type":"",
      "location":"",
      "minimum_affection":"",
      "minimum_beauty":"",
      "minimum_happiness":"",
      "minimum_level":"36",
      "needs_overworld_rain":"",
      "party_species":"",
      "party_type":"",
      "relative_physical_status":"",
      "time_of_day":"",
      "trade_species":"",
      "trigger":"level-up",
      "turn_upside_down":""
   },
   {
      "codename":"swirlpool",
      "base_form":"swirlpool",
      "item":"",
      "gender":"",
      "known_move":"",
      "known_move_type":"",
      "location":"",
      "minimum_affection":"",
      "minimum_beauty":"",
      "minimum_happiness":"",
      "minimum_level":"",
      "needs_overworld_rain":"",
      "party_species":"",
      "party_type":"",
      "relative_physical_status":"",
      "time_of_day":"",
      "trade_species":"",
      "trigger":"",
      "turn_upside_down":""
   },
   {
      "codename":"coribalis",
      "base_form":"swirlpool",
      "item":"",
      "gender":"",
      "known_move":"",
      "known_move_type":"",
      "location":"",
      "minimum_affection":"",
      "minimum_beauty":"",
      "minimum_happiness":"",
      "minimum_level":"17",
      "needs_overworld_rain":"",
      "party_species":"",
      "party_type":"",
      "relative_physical_status":"",
      "time_of_day":"",
      "trade_species":"",
      "trigger":"level-up",
      "turn_upside_down":""
   },
   {
      "codename":"snaelstrom",
      "base_form":"swirlpool",
      "item":"",
      "gender":"",
      "known_move":"",
      "known_move_type":"",
      "location":"",
      "minimum_affection":"",
      "minimum_beauty":"",
      "minimum_happiness":"",
      "minimum_level":"34",
      "needs_overworld_rain":"",
      "party_species":"",
      "party_type":"",
      "relative_physical_status":"",
      "time_of_day":"",
      "trade_species":"",
      "trigger":"level-up",
      "turn_upside_down":""
   },
   {
      "codename":"justyke",
      "base_form":"justyke",
      "item":"",
      "gender":"",
      "known_move":"",
      "known_move_type":"",
      "location":"",
      "minimum_affection":"",
      "minimum_beauty":"",
      "minimum_happiness":"",
      "minimum_level":"",
      "needs_overworld_rain":"",
      "party_species":"",
      "party_type":"",
      "relative_physical_status":"",
      "time_of_day":"",
      "trade_species":"",
      "trigger":"",
      "turn_upside_down":""
   },
   {
      "codename":"equilibra",
      "base_form":"justyke",
      "item":"",
      "gender":"",
      "known_move":"",
      "known_move_type":"",
      "location":"",
      "minimum_affection":"",
      "minimum_beauty":"",
      "minimum_happiness":"",
      "minimum_level":"32",
      "needs_overworld_rain":"",
      "party_species":"",
      "party_type":"",
      "relative_physical_status":"",
      "time_of_day":"",
      "trade_species":"",
      "trigger":"level-up",
      "turn_upside_down":""
   },
   {
      "codename":"solotl",
      "base_form":"solotl",
      "item":"",
      "gender":"",
      "known_move":"",
      "known_move_type":"",
      "location":"",
      "minimum_affection":"",
      "minimum_beauty":"",
      "minimum_happiness":"",
      "minimum_level":"",
      "needs_overworld_rain":"",
      "party_species":"",
      "party_type":"",
      "relative_physical_status":"",
      "time_of_day":"",
      "trade_species":"",
      "trigger":"",
      "turn_upside_down":""
   },
   {
      "codename":"astrolotl",
      "base_form":"solotl",
      "item":"",
      "gender":"",
      "known_move":"",
      "known_move_type":"",
      "location":"",
      "minimum_affection":"",
      "minimum_beauty":"",
      "minimum_happiness":"",
      "minimum_level":"35",
      "needs_overworld_rain":"",
      "party_species":"",
      "party_type":"",
      "relative_physical_status":"",
      "time_of_day":"",
      "trade_species":"",
      "trigger":"level-up",
      "turn_upside_down":""
   },
   {
      "codename":"miasmite",
      "base_form":"miasmite",
      "item":"",
      "gender":"",
      "known_move":"",
      "known_move_type":"",
      "location":"",
      "minimum_affection":"",
      "minimum_beauty":"",
      "minimum_happiness":"",
      "minimum_level":"",
      "needs_overworld_rain":"",
      "party_species":"",
      "party_type":"",
      "relative_physical_status":"",
      "time_of_day":"",
      "trade_species":"",
      "trigger":"",
      "turn_upside_down":""
   },
   {
      "codename":"miasmaw",
      "base_form":"miasmite",
      "item":"",
      "gender":"",
      "known_move":"",
      "known_move_type":"",
      "location":"",
      "minimum_affection":"",
      "minimum_beauty":"",
      "minimum_happiness":"",
      "minimum_level":"30",
      "needs_overworld_rain":"",
      "party_species":"",
      "party_type":"",
      "relative_physical_status":"",
      "time_of_day":"",
      "trade_species":"",
      "trigger":"level-up",
      "turn_upside_down":""
   },
   {
      "codename":"nohface",
      "base_form":"nohface",
      "item":"",
      "gender":"",
      "known_move":"",
      "known_move_type":"",
      "location":"",
      "minimum_affection":"",
      "minimum_beauty":"",
      "minimum_happiness":"",
      "minimum_level":"",
      "needs_overworld_rain":"",
      "party_species":"",
      "party_type":"",
      "relative_physical_status":"",
      "time_of_day":"",
      "trade_species":"",
      "trigger":"",
      "turn_upside_down":""
   },
   {
      "codename":"monohm",
      "base_form":"monohm",
      "item":"",
      "gender":"",
      "known_move":"",
      "known_move_type":"",
      "location":"",
      "minimum_affection":"",
      "minimum_beauty":"",
      "minimum_happiness":"",
      "minimum_level":"",
      "needs_overworld_rain":"",
      "party_species":"",
      "party_type":"",
      "relative_physical_status":"",
      "time_of_day":"",
      "trade_species":"",
      "trigger":"",
      "turn_upside_down":""
   },
   {
      "codename":"duohm",
      "base_form":"monohm",
      "item":"",
      "gender":"",
      "known_move":"",
      "known_move_type":"",
      "location":"",
      "minimum_affection":"",
      "minimum_beauty":"",
      "minimum_happiness":"",
      "minimum_level":"32",
      "needs_overworld_rain":"",
      "party_species":"",
      "party_type":"",
      "relative_physical_status":"",
      "time_of_day":"",
      "trade_species":"",
      "trigger":"level-up",
      "turn_upside_down":""
   },
   {
      "codename":"dorsoil",
      "base_form":"dorsoil",
      "item":"",
      "gender":"",
      "known_move":"",
      "known_move_type":"",
      "location":"",
      "minimum_affection":"",
      "minimum_beauty":"",
      "minimum_happiness":"",
      "minimum_level":"",
      "needs_overworld_rain":"",
      "party_species":"",
      "party_type":"",
      "relative_physical_status":"",
      "time_of_day":"",
      "trade_species":"",
      "trigger":"",
      "turn_upside_down":""
   },
   {
      "codename":"protowatt",
      "base_form":"protowatt",
      "item":"",
      "gender":"",
      "known_move":"",
      "known_move_type":"",
      "location":"",
      "minimum_affection":"",
      "minimum_beauty":"",
      "minimum_happiness":"",
      "minimum_level":"",
      "needs_overworld_rain":"",
      "party_species":"",
      "party_type":"",
      "relative_physical_status":"",
      "time_of_day":"",
      "trade_species":"",
      "trigger":"",
      "turn_upside_down":""
   }
]
