[
    {
        "title": "Pokémon Gold",
        "codename": "gold",
        "generation": 2,
        "numeral": "ii",
        "release_date": 943138860,
        "console": "Gameboy Color",
        "version_group": "gold-silver",
        "has_back_sprite": true,
        "has_shiny_sprite": true,
        "has_transparent_sprite": true,
        "box_art_url": "https://raw.githubusercontent.com/libretro-thumbnails/Nintendo_-_Game_Boy_Color/master/Named_Boxarts/Pokemon%20-%20Gold%20Version%20(USA%2C%20Europe)%20(SGB%20Enhanced)%20(GB%20Compatible).png"
    }
]
