[
    {
        "title": "Pokémon Leaf Green",
        "codename": "leafgreen",
        "generation": 3,
        "numeral": "iii",
        "release_date": 1075330860,
        "console": "Gameboy Advance",
        "version_group": "firered-leafgreen",
        "has_back_sprite": true,
        "has_shiny_sprite": true,
        "box_art_url": "https://raw.githubusercontent.com/libretro-thumbnails/Nintendo_-_Game_Boy_Advance/master/Named_Boxarts/Pokemon%20-%20LeafGreen%20Version%20(USA).png"
    }
]
