[
    {
        "title": "Pokémon Diamond",
        "codename": "diamond",
        "generation": 4,
        "numeral": "iv",
        "release_date": 1159398060,
        "console": "Nintendo DS",
        "version_group": "diamond-pearl",
        "has_back_sprite": true,
        "has_female_sprite": true,
        "has_shiny_sprite": true,
        "box_art_url": "https://raw.githubusercontent.com/libretro-thumbnails/Nintendo_-_Nintendo_DS/master/Named_Boxarts/Pokemon%20-%20Diamond%20Version%20(USA)%20(Rev%205).png"
    }
]
