[
    {
        "title": "Pokémon Platinum",
        "codename": "platinum",
        "generation": 4,
        "numeral": "iv",
        "release_date": 1221260460,
        "console": "Nintendo DS",
        "version_group": "platinum",
        "has_back_sprite": true,
        "has_female_sprite": true,
        "has_shiny_sprite": true,
        "box_art_url": "https://raw.githubusercontent.com/libretro-thumbnails/Nintendo_-_Nintendo_DS/master/Named_Boxarts/Pokemon%20-%20Platinum%20Version%20(USA).png"
    }
]
