[
    {
        "title": "Pokémon White 2",
        "codename": "white2",
        "generation": 5,
        "numeral": "v",
        "release_date": 1340406060,
        "console": "Nintendo DS",
        "version_group": "black2-white2",
        "box_art_url": "https://raw.githubusercontent.com/libretro-thumbnails/Nintendo_-_Nintendo_DS/master/Named_Boxarts/Pokemon%20-%20White%20Version%202%20(USA%2C%20Europe)%20(NDSi%20Enhanced).png"
    }
]
