[
    {
        "title": "Pokémon Ultra Moon",
        "codename": "ultramoon",
        "generation": 7,
        "numeral": "vii",
        "release_date": 1510873260,
        "console": "Nintendo 3DS",
        "version_group": "ultra-sun-ultra-moon",
        "has_female_sprite": true,
        "has_shiny_sprite": true,
        "box_art_url": "https://raw.githubusercontent.com/libretro-thumbnails/Nintendo_-_Nintendo_3DS/master/Named_Boxarts/Pokemon%20Ultra%20Moon%20(USA)%20(En%2CJa%2CFr%2CDe%2CEs%2CIt%2CZh%2CKo).png"
    }
]
